{
	"additionalNodes": [],
	"additionalParameters": {
		"root": {
			"height": 128,
			"width": 216
		}
	},
	"inputs": [ {
		"command": "Variable",
		"name": "center"
	}, {
		"command": "Variable",
		"name": "radius"
	} ],
	"outputs": [],
	"properties": {
		"ANna5tkTSaUit9BRnebZu0Gv8y4EKNyg": {
			"height": 79,
			"title": "repeat",
			"width": 131,
			"x": 452,
			"y": 42
		},
		"BxQ6zMXpobN7JjclTRbD0lAzvFOiuuBE": {
			"height": 112,
			"title": "nota_uhlik_map.move",
			"width": 221,
			"x": 800,
			"y": 145
		},
		"EJxgj0peTh0GeNO323awvqhGJNLCmUuP": {
			"height": 94,
			"title": "store",
			"width": 330,
			"x": 440,
			"y": -98
		},
		"JAX3vqLWItCmUEupYdrbkfprxaL4vS7H": {
			"height": 60,
			"title": "sequence",
			"width": 143,
			"x": 628,
			"y": 47
		},
		"Quk9lvnd5zyHcIa1YKq4o8UOuS5NDVbN": {
			"height": 60,
			"title": "sequence",
			"width": 143,
			"x": 245,
			"y": 25
		},
		"SgIgeW46GzIpV9FlXHHMhRtmHECOzOye": {
			"height": 112,
			"title": "nota_uhlik_map.move",
			"width": 221,
			"x": 818,
			"y": 27
		},
		"XEf9PONz87lNvfRJT8CHXYRTLoWdFJ2R": {
			"height": 112,
			"title": "nota_uhlik_map.move",
			"width": 221,
			"x": 807,
			"y": -101
		}
	},
	"roles": [ {
		"categories": [],
		"name": "Role 0"
	} ],
	"root": {
		"children": [ {
			"children": [],
			"id": "EJxgj0peTh0GeNO323awvqhGJNLCmUuP",
			"nodeType": "luaCommand",
			"parameters": [ {
				"name": "var",
				"value": "Path"
			}, {
				"name": "value",
				"value": "GetCirclePath(center, radius)"
			}, {
				"name": "scriptName",
				"value": "store"
			} ],
			"scriptName": "store"
		}, {
			"children": [ {
				"children": [ {
					"children": [],
					"id": "XEf9PONz87lNvfRJT8CHXYRTLoWdFJ2R",
					"nodeType": "luaCommand",
					"parameters": [ {
						"name": "unitID",
						"value": "units[1]"
					}, {
						"name": "point",
						"value": "Path[1]"
					}, {
						"name": "treshold",
						"value": "50"
					}, {
						"name": "scriptName",
						"value": "nota_uhlik_map.move"
					} ],
					"scriptName": "nota_uhlik_map.move"
				}, {
					"children": [],
					"id": "SgIgeW46GzIpV9FlXHHMhRtmHECOzOye",
					"nodeType": "luaCommand",
					"parameters": [ {
						"name": "unitID",
						"value": "units[1]"
					}, {
						"name": "point",
						"value": "Path[2]"
					}, {
						"name": "treshold",
						"value": "50"
					}, {
						"name": "scriptName",
						"value": "nota_uhlik_map.move"
					} ],
					"scriptName": "nota_uhlik_map.move"
				}, {
					"children": [],
					"id": "BxQ6zMXpobN7JjclTRbD0lAzvFOiuuBE",
					"nodeType": "luaCommand",
					"parameters": [ {
						"name": "unitID",
						"value": "units[1]"
					}, {
						"name": "point",
						"value": "Path[4]"
					}, {
						"name": "treshold",
						"value": "50"
					}, {
						"name": "scriptName",
						"value": "nota_uhlik_map.move"
					} ],
					"scriptName": "nota_uhlik_map.move"
				} ],
				"id": "JAX3vqLWItCmUEupYdrbkfprxaL4vS7H",
				"nodeType": "sequence",
				"parameters": []
			} ],
			"id": "ANna5tkTSaUit9BRnebZu0Gv8y4EKNyg",
			"nodeType": "repeat",
			"parameters": []
		} ],
		"id": "Quk9lvnd5zyHcIa1YKq4o8UOuS5NDVbN",
		"nodeType": "sequence",
		"parameters": []
	}
}