{
	"additionalNodes": [],
	"additionalParameters": {
		"root": {
			"height": 108,
			"width": 216
		}
	},
	"inputs": [],
	"outputs": [],
	"properties": {
		"3eGk46IVer5YpHGNUwoCfsUUzKJNa4R3": {
			"height": 94,
			"title": "store",
			"width": 371,
			"x": 415,
			"y": -67
		},
		"4OS8vHxijGRsGlOXuKMA9RI8yTYozOal": {
			"height": 94,
			"title": "store",
			"width": 209,
			"x": 448,
			"y": -186
		},
		"6Pkv2fEERKtJsUwzSK0telJdQf6WLqpQ": {
			"height": 54,
			"title": "success",
			"width": 132,
			"x": 678,
			"y": 254
		},
		"GFqCbe3ttofkmcdSh3Y8zi1p8b9ggAT0": {
			"height": 60,
			"title": "sequence",
			"width": 143,
			"x": 244,
			"y": -16
		},
		"Ik4hgZAUW1buTOzEmZBo9RkZNk3NJsmC": {
			"height": 94,
			"title": "store",
			"width": 198,
			"x": 443,
			"y": -287
		},
		"TAYrvj3xFHCzK6FP8kzslcVDl187k0c3": {
			"height": 94,
			"title": "store",
			"width": 463,
			"x": 463,
			"y": 56
		},
		"anN9lgNkUrZtyzGngQhePD9dmRTIyI1y": {
			"height": 115,
			"title": "nota_vysusilova_firstproject.buy",
			"width": 294,
			"x": 955,
			"y": 150
		},
		"eJad6OJXt5PlRFZVDEGoTGrpy4YgQ3b1": {
			"height": 90,
			"title": "luaCondition",
			"width": 194,
			"x": 450,
			"y": 153
		},
		"g3LA6M3JvwCS0JnP9c9gOoUpzbCsaNDn": {
			"height": 90,
			"title": "luaCondition",
			"width": 268,
			"x": 667,
			"y": 153
		}
	},
	"roles": [ {
		"categories": [],
		"name": "Role 0"
	} ],
	"root": {
		"children": [ {
			"children": [],
			"id": "Ik4hgZAUW1buTOzEmZBo9RkZNk3NJsmC",
			"nodeType": "luaCommand",
			"parameters": [ {
				"name": "var",
				"value": "missionInfo"
			}, {
				"name": "value",
				"value": "core.MissionInfo()"
			}, {
				"name": "scriptName",
				"value": "store"
			} ],
			"scriptName": "store"
		}, {
			"children": [],
			"id": "4OS8vHxijGRsGlOXuKMA9RI8yTYozOal",
			"nodeType": "luaCommand",
			"parameters": [ {
				"name": "var",
				"value": "availableMetal"
			}, {
				"name": "value",
				"value": "GetAvailableMetal()"
			}, {
				"name": "scriptName",
				"value": "store"
			} ],
			"scriptName": "store"
		}, {
			"children": [],
			"id": "3eGk46IVer5YpHGNUwoCfsUUzKJNa4R3",
			"nodeType": "luaCommand",
			"parameters": [ {
				"name": "var",
				"value": "allArtillery"
			}, {
				"name": "value",
				"value": "GetUnitListByDef(98)"
			}, {
				"name": "scriptName",
				"value": "store"
			} ],
			"scriptName": "store"
		}, {
			"children": [],
			"id": "TAYrvj3xFHCzK6FP8kzslcVDl187k0c3",
			"nodeType": "luaCommand",
			"parameters": [ {
				"name": "var",
				"value": "canBuy"
			}, {
				"name": "value",
				"value": "math.min(GetPossibleBuyCount(\"armmart\"),20- #allArtillery)"
			}, {
				"name": "scriptName",
				"value": "store"
			} ],
			"scriptName": "store"
		}, {
			"children": [ {
				"children": [ {
					"children": [],
					"id": "anN9lgNkUrZtyzGngQhePD9dmRTIyI1y",
					"nodeType": "luaCommand",
					"parameters": [ {
						"name": "unitName",
						"value": "'armmart'"
					}, {
						"name": "count",
						"value": "canBuy"
					}, {
						"name": "scriptName",
						"value": "nota_vysusilova_firstproject.buy"
					} ],
					"scriptName": "nota_vysusilova_firstproject.buy"
				} ],
				"id": "g3LA6M3JvwCS0JnP9c9gOoUpzbCsaNDn",
				"nodeType": "luaCondition",
				"parameters": [ {
					"name": "expression",
					"value": "canBuy > 0"
				}, {
					"name": "repeat",
					"value": "true"
				} ]
			}, {
				"children": [],
				"id": "6Pkv2fEERKtJsUwzSK0telJdQf6WLqpQ",
				"nodeType": "success",
				"parameters": []
			} ],
			"id": "eJad6OJXt5PlRFZVDEGoTGrpy4YgQ3b1",
			"nodeType": "luaCondition",
			"parameters": [ {
				"name": "expression",
				"value": "#allArtillery < 15"
			}, {
				"name": "repeat",
				"value": "true"
			} ]
		} ],
		"id": "GFqCbe3ttofkmcdSh3Y8zi1p8b9ggAT0",
		"nodeType": "sequence",
		"parameters": []
	}
}